…
> cleanEx()
> nameEx("as_fr_tdr")
> ### * as_fr_tdr
> 
> flush(stderr()); flush(stdout())
> 
> ### Name: as_fr_tdr
> ### Title: Coerce a data frame into a 'fr_tdr' object
> ### Aliases: as_fr_tdr
> 
> ### ** Examples
> 
> as_fr_tdr(mtcars, name = "mtcars")
mtcars
# A tibble: 32 × 11
     mpg   cyl  disp    hp  drat    wt  qsec    vs    am  gear  carb
   <dbl> <dbl> <dbl> <dbl> <dbl> <dbl> <dbl> <dbl> <dbl> <dbl> <dbl>
 1  21       6  160    110  3.9   2.62  16.5     0     1     4     4
 2  21       6  160    110  3.9   2.88  17.0     0     1     4     4
 3  22.8     4  108     93  3.85  2.32  18.6     1     1     4     1
 4  21.4     6  258    110  3.08  3.22  19.4     1     0     3     1
 5  18.7     8  360    175  3.15  3.44  17.0     0     0     3     2
 6  18.1     6  225    105  2.76  3.46  20.2     1     0     3     1
 7  14.3     8  360    245  3.21  3.57  15.8     0     0     3     4
 8  24.4     4  147.    62  3.69  3.19  20       1     0     4     2
 9  22.8     4  141.    95  3.92  3.15  22.9     1     0     4     2
10  19.2     6  168.   123  3.92  3.44  18.3     1     0     4     4
# ℹ 22 more rows
…
> ### * read_fr_tdr
> 
> flush(stderr()); flush(stdout())
> 
> ### Name: read_fr_tdr
> ### Title: read a tabular-data-resource into R
> ### Aliases: read_fr_tdr
> 
> ### ** Examples
> 
> read_fr_tdr(fs::path_package("fr", "hamilton_poverty_2020"))
hamilton_poverty_2020
- version: 0.0.1
- title: Hamilton County Poverty Rates in 2020
# A tibble: 226 × 3
   census_tract_id_2020  year fraction_poverty
   <chr>                <dbl>            <dbl>
 1 39061021508           2020            0.057
 2 39061021421           2020            0.031
 3 39061023300           2020            0.03 
 4 39061002000           2020            0.098
 5 39061002500           2020            0.442
 6 39061007700           2020            0.603
 7 39061009902           2020            0.15 
 8 39061010700           2020            0.15 
 9 39061023902           2020            0.013
10 39061022301           2020            0.247
# ℹ 216 more rows
…
